[gd_scene load_steps=2 format=2]

[sub_resource type="GDScript" id=1]
script/source = "extends Node2D

export (String,\"LaserGun\",\"LobGun\",\"MissileLauncher\",\"Shotgun\") var type = \"LaserGun\"


var bulletType

func _ready():
	if type == null:
		type = \"LaserGun\"
	bulletType = Armory[type].bullet
	$Direction.visible = false
	$Direction.queue_free()
	

func shoot(shooter):
	var bullet:Node2D = bulletType.instance()
	bullet.shooter = shooter
	bullet.gun = self
	LevelManager.getLevel().add_child(bullet)
	"

[node name="Gun" type="Node2D"]
rotation = 1.5708
script = SubResource( 1 )

[node name="Direction" type="Line2D" parent="."]
points = PoolVector2Array( 0, 0, 10, -4.37114e-07 )
width = 2.0
begin_cap_mode = 2
end_cap_mode = 2
