[gd_scene load_steps=3 format=2]

[sub_resource type="GDScript" id=1]
script/source = "extends Node2D


export (float) var hue = 0
export (String) var text = \"Red\"

func _ready():
	$Label.text = text

func _on_Area2D_body_entered(body):
	body.get_parent().Team = hue
#	breakpoint"

[sub_resource type="RectangleShape2D" id=2]
extents = Vector2( 115.569, 103.477 )

[node name="Painter" type="Node2D"]
script = SubResource( 1 )

[node name="Area2D" type="Area2D" parent="."]

[node name="CollisionShape2D" type="CollisionShape2D" parent="Area2D"]
shape = SubResource( 2 )

[node name="Label" type="Label" parent="."]
margin_left = -54.2791
margin_top = -60.7408
margin_right = -14.2791
margin_bottom = -29.7408
rect_scale = Vector2( 2.83184, 2.8873 )
text = "Red"

[node name="Line2D" type="Line2D" parent="."]
position = Vector2( 3.78149, -1.89072 )
points = PoolVector2Array( -119.195, -102.387, 116.519, -103.648, 115.569, 97.1479, -117.304, 103.074, -118.565, -101.757 )
width = 2.0
default_color = Color( 0.5, 0.5, 0.5, 1 )
texture_mode = 194604352
[connection signal="body_entered" from="Area2D" to="." method="_on_Area2D_body_entered"]
