[gd_scene load_steps=10 format=2]

[ext_resource path="res://Elements/DebugData.tscn" type="PackedScene" id=1]
[ext_resource path="res://Elements/Player/Player.tscn" type="PackedScene" id=2]
[ext_resource path="res://Art/KenneySpaceShooterExt/Building/spaceBuilding_002.png" type="Texture" id=3]
[ext_resource path="res://Elements/ShipSelector.tscn" type="PackedScene" id=4]
[ext_resource path="res://Elements/Painter.tscn" type="PackedScene" id=5]
[ext_resource path="res://Elements/Background.tscn" type="PackedScene" id=6]

[sub_resource type="OccluderPolygon2D" id=1]
polygon = PoolVector2Array( 0, 0, 64, 0, 64, 64, 0, 64 )

[sub_resource type="ConvexPolygonShape2D" id=2]
points = PoolVector2Array( 0, 0, 64, 0, 64, 64, 0, 64 )

[sub_resource type="TileSet" id=3]
0/name = "spaceBuilding_002.png 0"
0/texture = ExtResource( 3 )
0/tex_offset = Vector2( 0, 0 )
0/modulate = Color( 1, 1, 1, 1 )
0/region = Rect2( 10, 10, 64, 64 )
0/tile_mode = 0
0/occluder_offset = Vector2( 0, 0 )
0/occluder = SubResource( 1 )
0/navigation_offset = Vector2( 0, 0 )
0/shapes = [ {
"autotile_coord": Vector2( 0, 0 ),
"one_way": false,
"one_way_margin": 1.0,
"shape": SubResource( 2 ),
"shape_transform": Transform2D( 1, 0, 0, 1, 0, 0 )
} ]
0/z_index = 0

[node name="Level1" type="Node2D"]

[node name="VBoxContainer" parent="." instance=ExtResource( 1 )]
margin_left = 843.783
margin_top = 66.5847
margin_right = 987.783
margin_bottom = 200.585

[node name="Player" parent="." instance=ExtResource( 2 )]
position = Vector2( 461.774, 333.571 )

[node name="Player2" parent="." instance=ExtResource( 2 )]
position = Vector2( 485.193, 532.706 )

[node name="TileMap" type="TileMap" parent="."]
modulate = Color( 0.309804, 0.309804, 0.309804, 1 )
position = Vector2( -4, -4 )
z_index = -1
tile_set = SubResource( 3 )
format = 1
tile_data = PoolIntArray( 0, 0, 0, 1, 0, 0, 2, 0, 0, 3, 0, 0, 4, 0, 0, 5, 0, 0, 6, 0, 0, 7, 0, 0, 8, 0, 0, 9, 0, 0, 10, 0, 0, 11, 0, 0, 12, 0, 0, 13, 0, 0, 14, 0, 0, 15, 0, 0, 16, 0, 0, 17, 0, 0, 18, 0, 0, 19, 0, 0, 20, 0, 0, 21, 0, 0, 22, 0, 0, 23, 0, 0, 24, 0, 0, 25, 0, 0, 26, 0, 0, 27, 0, 0, 28, 0, 0, 29, 0, 0, 65536, 0, 0, 65565, 0, 0, 131072, 0, 0, 131101, 0, 0, 196608, 0, 0, 196637, 0, 0, 262144, 0, 0, 262173, 0, 0, 262183, 0, 0, 262184, 0, 1, 262185, 0, 1, 262186, 0, 1, 262187, 0, 1, 262188, 0, 2, 327680, 0, 0, 327709, 0, 0, 327719, 0, 65536, 327720, 0, 65537, 327721, 0, 65537, 327722, 0, 65537, 327723, 0, 65537, 327724, 0, 65538, 393216, 0, 0, 393245, 0, 0, 393255, 0, 65536, 393256, 0, 65537, 393257, 0, 65537, 393258, 0, 65537, 393259, 0, 65537, 393260, 0, 65538, 458752, 0, 0, 458781, 0, 0, 458791, 0, 65536, 458792, 0, 65537, 458793, 0, 65537, 458794, 0, 65537, 458795, 0, 65537, 458796, 0, 65538, 524288, 0, 0, 524317, 0, 0, 524327, 0, 65536, 524328, 0, 65537, 524329, 0, 65537, 524330, 0, 65537, 524331, 0, 65537, 524332, 0, 65538, 589824, 0, 0, 589853, 0, 0, 589863, 0, 131072, 589864, 0, 131073, 589865, 0, 131073, 589866, 0, 131073, 589867, 0, 131073, 589868, 0, 131074, 655360, 0, 0, 655389, 0, 0, 720896, 0, 0, 720925, 0, 0, 786432, 0, 0, 786461, 0, 0, 851968, 0, 0, 851997, 0, 0, 917504, 0, 0, 917533, 0, 0, 983040, 0, 0, 983069, 0, 0, 1048576, 0, 0, 1048577, 0, 0, 1048578, 0, 0, 1048579, 0, 0, 1048580, 0, 0, 1048581, 0, 0, 1048582, 0, 0, 1048583, 0, 0, 1048584, 0, 0, 1048585, 0, 0, 1048586, 0, 0, 1048587, 0, 0, 1048588, 0, 0, 1048589, 0, 0, 1048590, 0, 0, 1048591, 0, 0, 1048592, 0, 0, 1048593, 0, 0, 1048594, 0, 0, 1048595, 0, 0, 1048596, 0, 0, 1048597, 0, 0, 1048598, 0, 0, 1048599, 0, 0, 1048600, 0, 0, 1048601, 0, 0, 1048602, 0, 0, 1048603, 0, 0, 1048604, 0, 0, 1048605, 0, 0 )

[node name="Label" type="Label" parent="."]
margin_left = 68.3688
margin_top = 70.4752
margin_right = 212.369
margin_bottom = 118.475
text = "W = forward
A/D = Turn
S = Stop"

[node name="Label2" type="Label" parent="."]
margin_left = 1729.05
margin_top = 75.6446
margin_right = 1873.05
margin_bottom = 123.645
text = "Up = forward
Left/Right = Turn
Down = Stop"

[node name="ShipSelector" parent="." instance=ExtResource( 4 )]

[node name="ShipSelector2" parent="." instance=ExtResource( 4 )]
position = Vector2( 217.533, 574.02 )

[node name="ShipSelector3" parent="." instance=ExtResource( 4 )]
position = Vector2( 211.236, 852.898 )
shipIndex = 2

[node name="Painter" parent="." instance=ExtResource( 5 )]
position = Vector2( 1608.98, 858.125 )
z_index = -5

[node name="Painter2" parent="." instance=ExtResource( 5 )]
position = Vector2( 1204.74, 841.747 )
z_index = -5
hue = 0.333
text = "Green"

[node name="Painter3" parent="." instance=ExtResource( 5 )]
position = Vector2( 854.51, 841.747 )
z_index = -5
hue = 0.667
text = "Blue"

[node name="Background" parent="." instance=ExtResource( 6 )]
