[gd_scene load_steps=4 format=2]

[ext_resource path="res://Art/LaserSound.wav" type="AudioStream" id=1]

[sub_resource type="GDScript" id=1]
script/source = "extends Node2D

var speed
var maxAge = 2
var damage = 10
var age = 0

var team = null
var gun:Node2D = null
var shooter = null

#var pelletC = 

func _ready():
	

	var audio = $AudioStreamPlayer2D
	audio.pitch_scale = 0.9 + (randf() * .2)
	remove_child(audio)
	get_parent().add_child(audio)

	team = shooter.getTeam()
	speed = Vector2(2500,0)
	global_position = gun.global_position
	global_rotation = gun.global_rotation
	var color = Color().from_hsv(team / 6.0, 1, 1 )

func _physics_process(delta):
	position = position + (speed.rotated(rotation) * delta)
	
	
	
	age = age + delta
	if age > maxAge:
		queue_free()

func _on_Particle_body_entered(body:Node2D):
	
	if body.has_method(\"takeDamage\"):
		if body.has_method(\"getTeam\"):
			if body.getTeam() != team:
				body.takeDamage(damage,shooter)
				queue_free()
	else:
		queue_free()"

[sub_resource type="GDScript" id=2]
script/source = "extends AudioStreamPlayer2D



func _on_AudioStreamPlayer2D_finished():
	queue_free()
	pass # Replace with function body.
"

[node name="Shotgun" type="Node2D"]
light_mask = 0
script = SubResource( 1 )

[node name="AudioStreamPlayer2D" type="AudioStreamPlayer2D" parent="."]
position = Vector2( 0, 3.57628e-07 )
scale = Vector2( 1.45437, 0.890027 )
stream = ExtResource( 1 )
volume_db = -20.916
autoplay = true
script = SubResource( 2 )

[node name="Shots" type="Node2D" parent="."]
[connection signal="finished" from="AudioStreamPlayer2D" to="AudioStreamPlayer2D" method="_on_AudioStreamPlayer2D_finished"]
